Started

Start time: 2017-01-27 11:02:06
Feature extraction start time: 2017-01-27 11:02:06
Feature extraction time in minutes: 0.163283333333
==> Training ==> Pre-optimization activity

dimension: 1009133
number of epochs: 100
Building feature matrix...
i: 0
i: 100
i: 200
i: 300
i: 400
i: 500
i: 600
i: 700
i: 800
i: 900
i: 1000
i: 1100
i: 1200
i: 1300
i: 1400
i: 1500
i: 1600
i: 1700
i: 1800
i: 1900
i: 2000
i: 2100
i: 2200
i: 2300
i: 2400
i: 2500
i: 2600
i: 2700
i: 2800
i: 2900
i: 3000
i: 3100
i: 3200
i: 3300
i: 3400
i: 3500
i: 3600
i: 3700
i: 3800
i: 3900
i: 4000
i: 4100
i: 4200
i: 4300
i: 4400
i: 4500
i: 4600
i: 4700
i: 4800
i: 4900
time: 3.45709165689
Building trees...
i: 0
i: 1000
i: 2000
i: 3000
i: 4000
Time: 0.0164555984919
Building graphs...
i: 0
i: 1000
i: 2000
i: 3000
i: 4000
time: 0.021203117819
==> Training ==> Starting learning

Epoch 0, start time: 2017-01-27 11:05:47
t: 0
t: 1000
t: 2000
t: 3000
t: 4000
Epoch 1, start time: 2017-01-27 11:10:21
t: 0
t: 1000
t: 2000
t: 3000
t: 4000
Epoch 2, start time: 2017-01-27 11:14:31
t: 0
t: 1000
t: 2000
t: 3000
t: 4000
Epoch 3, start time: 2017-01-27 11:19:00
t: 0
t: 1000
t: 2000
t: 3000
t: 4000
Epoch 4, start time: 2017-01-27 11:23:09
t: 0
t: 1000
t: 2000
t: 3000
t: 4000
Epoch 5, start time: 2017-01-27 11:27:08
t: 0
t: 1000
t: 2000
t: 3000
t: 4000
Epoch 6, start time: 2017-01-27 11:30:54
t: 0
t: 1000
t: 2000
t: 3000
t: 4000
Epoch 7, start time: 2017-01-27 11:34:39
t: 0
t: 1000
t: 2000
t: 3000
t: 4000
Epoch 8, start time: 2017-01-27 11:38:09
t: 0
t: 1000
t: 2000
t: 3000
t: 4000
Epoch 9, start time: 2017-01-27 11:41:37
t: 0
t: 1000
t: 2000
t: 3000
t: 4000
Epoch 10, start time: 2017-01-27 11:45:02
t: 0
t: 1000
t: 2000
t: 3000
t: 4000
Epoch 11, start time: 2017-01-27 11:48:33
t: 0
t: 1000
t: 2000
t: 3000
t: 4000
Epoch 12, start time: 2017-01-27 11:51:40
t: 0
t: 1000
t: 2000
t: 3000
t: 4000
Epoch 13, start time: 2017-01-27 11:54:42
t: 0
t: 1000
t: 2000
t: 3000
t: 4000
Epoch 14, start time: 2017-01-27 11:57:46
t: 0
t: 1000
t: 2000
t: 3000
t: 4000
Epoch 15, start time: 2017-01-27 12:00:54
t: 0
t: 1000
t: 2000
t: 3000
t: 4000
Epoch 16, start time: 2017-01-27 12:04:14
t: 0
t: 1000
t: 2000
t: 3000
t: 4000
Epoch 17, start time: 2017-01-27 12:07:41
t: 0
t: 1000
t: 2000
t: 3000
t: 4000
Epoch 18, start time: 2017-01-27 12:10:51
t: 0
t: 1000
t: 2000
t: 3000
t: 4000
Epoch 19, start time: 2017-01-27 12:14:16
t: 0
t: 1000
t: 2000
t: 3000
t: 4000
Epoch 20, start time: 2017-01-27 12:17:10
t: 0
t: 1000
t: 2000
t: 3000
t: 4000
Epoch 21, start time: 2017-01-27 12:20:04
t: 0
t: 1000
t: 2000
t: 3000
t: 4000
Epoch 22, start time: 2017-01-27 12:22:55
t: 0
t: 1000
t: 2000
t: 3000
t: 4000
Epoch 23, start time: 2017-01-27 12:25:48
t: 0
t: 1000
t: 2000
t: 3000
t: 4000
Epoch 24, start time: 2017-01-27 12:28:36
t: 0
t: 1000
t: 2000
t: 3000
t: 4000
Epoch 25, start time: 2017-01-27 12:31:23
t: 0
t: 1000
t: 2000
t: 3000
t: 4000
Epoch 26, start time: 2017-01-27 12:34:06
t: 0
t: 1000
t: 2000
t: 3000
t: 4000
Epoch 27, start time: 2017-01-27 12:36:50
t: 0
t: 1000
t: 2000
t: 3000
t: 4000
Epoch 28, start time: 2017-01-27 12:39:29
t: 0
t: 1000
t: 2000
t: 3000
t: 4000
Epoch 29, start time: 2017-01-27 12:42:10
t: 0
t: 1000
t: 2000
t: 3000
t: 4000
Epoch 30, start time: 2017-01-27 12:44:50
t: 0
t: 1000
t: 2000
t: 3000
t: 4000
Epoch 31, start time: 2017-01-27 12:47:41
t: 0
t: 1000
t: 2000
t: 3000
t: 4000
Epoch 32, start time: 2017-01-27 12:50:49
t: 0
t: 1000
t: 2000
t: 3000
t: 4000
Epoch 33, start time: 2017-01-27 12:53:59
t: 0
t: 1000
t: 2000
t: 3000
t: 4000
Epoch 34, start time: 2017-01-27 12:57:50
t: 0
t: 1000
t: 2000
t: 3000
t: 4000
Epoch 35, start time: 2017-01-27 13:01:56
t: 0
t: 1000
t: 2000
t: 3000
t: 4000
Epoch 36, start time: 2017-01-27 13:05:31
t: 0
t: 1000
t: 2000
t: 3000
t: 4000
Epoch 37, start time: 2017-01-27 13:09:01
t: 0
t: 1000
t: 2000
t: 3000
t: 4000
Epoch 38, start time: 2017-01-27 13:11:43
t: 0
t: 1000
t: 2000
t: 3000
t: 4000
Epoch 39, start time: 2017-01-27 13:14:37
t: 0
t: 1000
t: 2000
t: 3000
t: 4000
Epoch 40, start time: 2017-01-27 13:17:30
t: 0
t: 1000
t: 2000
t: 3000
t: 4000
Epoch 41, star